{
  "iisSettings": {
    "windowsAuthentication": false,
    "anonymousAuthentication": true,
    "iisExpress": {
      "applicationUrl": "http://localhost:1479/",
      "sslPort": 0
    }
  },
  "profiles": {
    "IIS Express": {
      "commandName": "IISExpress",
      "launchBrowser": true,
      "launchUrl": "process/is%20venus%20a%20star.%20how%20many%20stars%20are%20there?",
      "environmentVariables": {
        "ASPNETCORE_ENVIRONMENT": "Development"
      }
    },
    "thatsettledit.nlp_processor": {
      "commandName": "Project",
      "launchBrowser": true,
      "launchUrl": "http://localhost:5000/process/is%20venus%20a%20star.%20how%20many%20stars%20are%20there?",
      "environmentVariables": {
        "ASPNETCORE_ENVIRONMENT": "Development"
      }
    }
  }
}
